Name,WeightClassKg,Division,Sex,Best3BenchKg,TotalKg,Event,Equipment,Place
Jay Welu,67.5,Open,M,129.27,129.27,B,Raw,1
J. Van Der Meulen,75,Open,M,127.01,127.01,B,Raw,1
M. Lattner,82.5,Open,M,149.69,149.69,B,Raw,1
S. Fergen,90,Open,M,136.08,136.08,B,Raw,1
B. Shanahan,100,Open,M,185.97,185.97,B,Raw,1
J. Welter,110,Open,M,174.63,174.63,B,Raw,1
P. Lynch,125,Open,M,158.76,158.76,B,Raw,1
