Place,Name,Division,Equipment,Sex,State,WeightClassKg,BodyweightKg,Age,Best3SquatKg,Squat4Kg,Best3BenchKg,Best3DeadliftKg,Deadlift4Kg,TotalKg,Event
1,Stacia-Al Mahoe,Juniors 18-19,Raw,F,HI,48,46.6,19,100,,75,160,,335,SBD
1,Vipa Pukasamsombut,Juniors 20-23,Raw,F,CA,48,47.55,23,110,,47.5,137.5,,295,SBD
1,Tiffani Tom,Juniors 20-23,Raw,F,CA,52,50.9,23,127.5,,45,132.5,,305,SBD
1,Megan Garcia,Juniors 18-19,Raw,F,CA,56,53.3,18,77.5,,42.5,90,,210,SBD
1,Sharon Luan,Juniors 18-19,Raw,F,CA,60,58.5,19,107.5,,52.5,160,,320,SBD
1,Kristen Norris,Juniors 20-23,Raw,F,OH,60,59.9,23,142.5,,82.5,150,,375,SBD
2,Logan Whitfill,Juniors 20-23,Raw,F,AZ,60,59.65,20,117.5,,55,137.5,,310,SBD
3,Diana Dinh,Juniors 20-23,Raw,F,CA,60,59.45,23,110,,52.5,137.5,,300,SBD
1,Tayler Claflin,Juniors 16-17,Raw,F,WY,67.5,67.15,17,125,,82.5,137.5,,345,SBD
2,Lilia Arroyo,Juniors 16-17,Raw,F,TX,67.5,67.35,17,92.5,,62.5,137.5,,292.5,SBD
1,Rachel Benson,Juniors 20-23,Raw,F,UT,67.5,66.6,23,135,,70,150,,355,SBD
2,Kenya Kelly,Juniors 20-23,Raw,F,OK,67.5,65.1,22,107.5,,55,150,,312.5,SBD
DQ,Shelby Simmons,Juniors 18-19,Raw,F,PA,75,71.55,18,,,57.5,,,,SBD
1,Gina Aversa,Juniors 20-23,Raw,F,CA,82.5,76.8,23,182.5,,92.5,227.5,,502.5,SBD
2,Cierra Laxton,Juniors 20-23,Raw,F,TX,82.5,79.3,22,130,,87.5,192.5,,410,SBD
1,Tessa Urbank,Juniors 20-23,Raw,F,FL,90,87.4,22,200,,95,227.5,,522.5,SBD
2,Amira Juma,Juniors 20-23,Raw,F,VA,90,89.4,23,135,,57.5,180,,372.5,SBD
1,Stacia-Al Mahoe,Open,Raw,F,HI,48,46.6,19,100,,75,160,,335,SBD
2,Vipa Pukasamsombut,Open,Raw,F,CA,48,47.55,23,110,,47.5,137.5,,295,SBD
3,Leda Emmons,Open,Raw,F,TX,48,47.9,29,92.5,,47.5,115,,255,SBD
1,Kelli Hoopes,Open,Raw,F,WY,52,52,38,112.5,,50,150,,312.5,SBD
2,Tiffani Tom,Open,Raw,F,CA,52,50.9,23,127.5,,45,132.5,,305,SBD
3,Kaitlin Drollette,Open,Raw,F,NY,52,51.45,29,107.5,,62.5,122.5,,292.5,SBD
4,Kimberly Fuzzell,Open,Raw,F,TX,52,51.2,43,92.5,,60,122.5,,275,SBD
5,Sarah Conomacos,Open,Raw,F,HI,52,51.1,25,85,,60,122.5,,267.5,SBD
6,Casey Rich,Open,Raw,F,NV,52,51.8,32,80,,52.5,120,,252.5,SBD
1,Dené Dainotto,Open,Raw,F,NY,56,54.2,26,127.5,,80,140,,347.5,SBD
2,Nicole Lamartine,Open,Raw,F,WY,56,54.75,41,122.5,,67.5,155,,345,SBD
3,Kayla Valenzuela,Open,Raw,F,CA,56,55.8,26,100,,55,142.5,,297.5,SBD
4,Kelsey Boronda,Open,Raw,F,CA,56,52.3,24,90,,50,122.5,,262.5,SBD
5,Megan Garcia,Open,Raw,F,CA,56,53.3,18,77.5,,42.5,90,,210,SBD
1,Kristen Norris,Open,Raw,F,OH,60,59.9,23,142.5,,82.5,150,,375,SBD
2,Kelly Lovan,Open,Raw,F,IA,60,60,37,117.5,,95,160,,372.5,SBD
3,Zoe Rodriguez,Open,Raw,F,FL,60,59.2,24,130,,77.5,157.5,,365,SBD
4,Logan Whitfill,Open,Raw,F,AZ,60,59.65,20,117.5,,55,137.5,,310,SBD
5,Anne Escobedo,Open,Raw,F,CA,60,59.4,26,115,,60,122.5,,297.5,SBD
6,Julielyn Lew,Open,Raw,F,HI,60,58.5,32,95,,55,142.5,,292.5,SBD
7,Kathleen McGray,Open,Raw,F,CA,60,59.2,35,110,,60,120,,290,SBD
8,Mia Galang,Open,Raw,F,CA,60,59.5,42,102.5,,52.5,130,,285,SBD
DQ,Shelby Heath,Open,Raw,F,CA,60,57.9,29,,,,,,,SBD
1,Chuquese Huffman,Open,Raw,F,CA,67.5,66.1,29,147.5,,110,205,,462.5,SBD
2,Barbara Lee #1,Open,Raw,F,LA,67.5,67.1,34,155,,102.5,190,,447.5,SBD
3,Noelia Corona-Terry,Open,Raw,F,TX,67.5,66.7,33,155,,115,165,,435,SBD
4,Jessica Kratz,Open,Raw,F,PA,67.5,65.4,43,137.5,,87.5,172.5,,397.5,SBD
5,Brandi Moore,Open,Raw,F,CA,67.5,66.5,45,137.5,,87.5,165,,390,SBD
6,Kelly Lenahan,Open,Raw,F,CA,67.5,67,26,132.5,,75,170,,377.5,SBD
7,Rachel Benson,Open,Raw,F,UT,67.5,66.6,23,135,,70,150,,355,SBD
8,Erica Gomez #1,Open,Raw,F,NV,67.5,67.5,25,112.5,,65,142.5,,320,SBD
9,Sarah Dooley,Open,Raw,F,OH,67.5,67.5,36,117.5,,60,132.5,,310,SBD
10,Hannah Stephens,Open,Raw,F,AL,67.5,64.5,24,117.5,,72.5,102.5,,292.5,SBD
1,Angela Bivens,Open,Raw,F,GA,75,74.4,36,152.5,,90,190,,432.5,SBD
2,Jackie Mercer,Open,Raw,F,OR,75,74.6,32,120,,62.5,172.5,,355,SBD
1,Gina Aversa,Open,Raw,F,CA,82.5,76.8,23,182.5,,92.5,227.5,,502.5,SBD
2,Cierra Laxton,Open,Raw,F,TX,82.5,79.3,22,130,,87.5,192.5,,410,SBD
3,Melissa Dunlap,Open,Raw,F,CA,82.5,80.8,34,152.5,,70,157.5,,380,SBD
4,Amber Burns,Open,Raw,F,KS,82.5,81.2,28,147.5,,77.5,155,,380,SBD
5,Michelle Vandeburgh,Open,Raw,F,CA,82.5,76.1,32,135,,92.5,150,,377.5,SBD
6,Loran Dominguez,Open,Raw,F,TX,82.5,80.7,24,130,,82.5,152.5,,365,SBD
7,Nicole Myers,Open,Raw,F,CA,82.5,79.4,37,125,,75,162.5,,362.5,SBD
1,Molly O'Rourke,Open,Raw,F,CA,90,88.8,33,182.5,,125,217.5,,525,SBD
2,Tessa Urbank,Open,Raw,F,FL,90,87.4,22,200,,95,227.5,,522.5,SBD
3,Kristin Boger,Open,Raw,F,AL,90,88.2,28,142.5,,77.5,177.5,,397.5,SBD
4,Maia Burchell,Open,Raw,F,AL,90,89.3,44,152.5,,75,170,,397.5,SBD
5,Amira Juma,Open,Raw,F,VA,90,89.4,23,135,,57.5,180,,372.5,SBD
1,Rebecca Foster,Open,Raw,F,TX,90+,99.9,38,152.5,,85,195,,432.5,SBD
2,Adriana Barajas,Open,Raw,F,CA,90+,110.5,33,155,,85,175,,415,SBD
3,Alexis Schmidt,Open,Raw,F,TX,90+,100.1,25,145,,80,182.5,,407.5,SBD
4,Tanye Lacombe,Open,Raw,F,TX,90+,117.65,56,92.5,,65,125,,282.5,SBD
1,Kelli Hoopes,Submasters 35-39,Raw,F,WY,52,52,38,112.5,,50,150,,312.5,SBD
1,Kelly Lovan,Submasters 35-39,Raw,F,IA,60,60,37,117.5,,95,160,,372.5,SBD
2,Kathleen McGray,Submasters 35-39,Raw,F,CA,60,59.2,35,110,,60,120,,290,SBD
1,Sarah Dooley,Submasters 35-39,Raw,F,OH,67.5,67.5,36,117.5,,60,132.5,,310,SBD
1,April Pendegraph,Submasters 35-39,Raw,F,AL,75,73.25,38,135,,77.5,152.5,,365,SBD
1,Nicole Myers,Submasters 35-39,Raw,F,CA,82.5,79.4,37,125,,75,162.5,,362.5,SBD
2,Alexandra Seal,Submasters 35-39,Raw,F,WA,82.5,76.55,38,130,,85,137.5,,352.5,SBD
1,Rebecca Foster,Submasters 35-39,Raw,F,TX,90+,99.9,38,152.5,,85,195,,432.5,SBD
1,Kimberly Fuzzell,Masters 40-44,Raw,F,TX,52,51.2,43,92.5,,60,122.5,,275,SBD
1,Stephanie Stickley,Masters 45-49,Raw,F,CA,52,50.9,49,82.5,,42.5,105,,230,SBD
1,Nicole Lamartine,Masters 40-44,Raw,F,WY,56,54.75,41,122.5,,67.5,155,,345,SBD
1,Stephanie Cinocco,Masters 45-49,Raw,F,NM,56,55,45,77.5,,52.5,95,,225,SBD
1,Mia Galang,Masters 40-44,Raw,F,CA,60,59.5,42,102.5,,52.5,130,,285,SBD
1,Tera Thornton,Masters 45-49,Raw,F,IN,60,59.1,47,85,,62.5,120,,267.5,SBD
1,Vicki Estes,Masters 50-54,Raw,F,CA,60,59.35,52,107.5,,62.5,150,,320,SBD
2,Lori Quandt,Masters 50-54,Raw,F,CA,60,59.5,50,92.5,,52.5,125,,270,SBD
1,Jessica Kratz,Masters 40-44,Raw,F,PA,67.5,65.4,43,137.5,,87.5,172.5,,397.5,SBD
1,Brandi Moore,Masters 45-49,Raw,F,CA,67.5,66.5,45,137.5,,87.5,165,,390,SBD
2,Tracy Sparks,Masters 45-49,Raw,F,AL,67.5,66.8,47,97.5,,65,132.5,,295,SBD
1,Agi Buck,Masters 55-59,Raw,F,CA,67.5,65.15,58,102.5,,72.5,130,,305,SBD
1,Melissa Garza #1,Masters 40-44,Raw,F,TX,75,72.9,40,120,,70,140,,330,SBD
DQ,Katherine Hristou,Masters 55-59,Raw,F,UT,75,71.7,55,,,57.5,,,,SBD
1,Valerie Muller,Masters 40-44,Raw,F,CA,82.5,80.05,41,120,,77.5,172.5,,370,SBD
1,Tina Collins,Masters 45-49,Raw,F,TX,82.5,79.25,47,125,,82.5,157.5,,365,SBD
1,Maia Burchell,Masters 40-44,Raw,F,AL,90,89.3,44,152.5,,75,170,,397.5,SBD
1,Lori Yates,Masters 50-54,Raw,F,WA,90+,123.7,52,155,,77.5,190,,422.5,SBD
2,Lynette Ritchie,Masters 50-54,Raw,F,IL,90+,110.35,51,147.5,,92.5,167.5,,407.5,SBD
1,Tanye Lacombe,Masters 55-59,Raw,F,TX,90+,117.65,56,92.5,,65,125,,282.5,SBD
1,Alan Le,Juniors 20-23,Raw,M,CA,56,55.1,23,145,,90,187.5,,422.5,SBD
1,Andrew Thao,Juniors 16-17,Raw,M,CA,60,60,16,135,,85,165,,385,SBD
1,Zulkifl Gire,Juniors 20-23,Raw,M,TX,60,59.9,20,147.5,,92.5,182.5,,422.5,SBD
1,Jake Conley,Juniors 16-17,Raw,M,CO,67.5,65.7,16,135,,107.5,187.5,,430,SBD
1,Jared Mishlove,Juniors 18-19,Raw,M,AZ,67.5,63.7,19,165,,110,195,,470,SBD
1,Kordell Cole,Juniors 20-23,Raw,M,OR,67.5,67.3,20,157.5,,100,215,,472.5,SBD
1,Jacob Hess,Juniors 16-17,Raw,M,IN,75,72.45,16,165,,110,200,,475,SBD
1,Kevin Navarro,Juniors 18-19,Raw,M,CA,75,74.6,19,197.5,,115,205,,517.5,SBD
1,Cory Faz,Juniors 20-23,Raw,M,MO,75,74.3,23,215,,147.5,242.5,,605,SBD
2,Ray Valdez,Juniors 20-23,Raw,M,TX,75,73.45,22,210,,125,252.5,,587.5,SBD
3,Xavier Counce,Juniors 20-23,Raw,M,NV,75,74.91,20,195,,117.5,265,,577.5,SBD
4,Nick Bustos,Juniors 20-23,Raw,M,CA,75,73.05,20,185,,122.5,235,,542.5,SBD
5,Kevin Meneray,Juniors 20-23,Raw,M,CA,75,73.4,20,172.5,,105,217.5,,495,SBD
1,Avtar Singh,Juniors 16-17,Raw,M,WA,82.5,80.65,17,175,,87.5,207.5,,470,SBD
1,Ben Hardy,Juniors 18-19,Raw,M,UT,82.5,78.15,18,195,,107.5,220,,522.5,SBD
1,Adam Osmoe,Juniors 20-23,Raw,M,IL,82.5,82,23,262.5,,167.5,250,,680,SBD
2,Joe Parks,Juniors 20-23,Raw,M,TX,82.5,76.05,22,192.5,,132.5,265,,590,SBD
3,Philip Pohle,Juniors 20-23,Raw,M,CA,82.5,81.9,23,192.5,,117.5,242.5,,552.5,SBD
DQ,Shane Pham,Juniors 20-23,Raw,M,NV,82.5,82.5,23,,,,247.5,,,SBD
DQ,Noah Lopez,Juniors 13-15,Raw,M,NM,90,88.5,15,182.5,,,187.5,,,SBD
1,Carlos Ferreyra,Juniors 18-19,Raw,M,CA,90,89.3,19,260,,170.5,265.5,,696,SBD
2,Cody Weedman,Juniors 18-19,Raw,M,CA,90,87,18,212.5,,140,230,,582.5,SBD
1,Jaron Christian,Juniors 20-23,Raw,M,NV,90,89.3,23,260,,172.5,287.5,,720,SBD
2,Anthony Grill,Juniors 20-23,Raw,M,CA,90,88.3,20,220,,145,290,,655,SBD
3,TJ Gerking,Juniors 20-23,Raw,M,IN,90,87.4,22,222.5,,130,260,,612.5,SBD
4,Dominick Reyes,Juniors 20-23,Raw,M,CA,90,89,22,212.5,,125,247.5,,585,SBD
DQ,Kevin Anderson,Juniors 20-23,Raw,M,TX,90,85,22,215,,130,,,,SBD
DQ,Landon De Castro Verde,Juniors 20-23,Raw,M,NV,90,87.35,22,215,,,,,,SBD
DQ,Jake Benson,Juniors 20-23,Raw,M,UT,90,88.95,22,,,,,,,SBD
1,William Valentine,Juniors 18-19,Raw,M,IA,100,97.7,18,237.5,,140,240,,617.5,SBD
2,Julio Reyes,Juniors 18-19,Raw,M,CA,100,98.6,19,227.5,,127.5,242.5,,597.5,SBD
DQ,Manvir Dhanoa,Juniors 18-19,Raw,M,CA,100,96.15,19,210,,,,,,SBD
1,Cailer Woolam,Juniors 20-23,Raw,M,TX,100,95.55,21,255,,185,365,,805,SBD
2,Brennon Peterson,Juniors 20-23,Raw,M,UT,100,98.05,23,245,,162.5,317.5,,725,SBD
3,Alexander Small,Juniors 20-23,Raw,M,CA,100,99.1,22,237.5,,157.5,282.5,,677.5,SBD
4,Amitoj Chhabra,Juniors 20-23,Raw,M,NV,100,98.9,21,232.5,,155,260,,647.5,SBD
5,Ron Turley,Juniors 20-23,Raw,M,TX,100,99.6,20,237.5,,155,227.5,,620,SBD
6,Munib Hosny,Juniors 20-23,Raw,M,NV,100,96,22,200,,145,235,,580,SBD
DQ,Tyler Lyness,Juniors 20-23,Raw,M,CA,100,96.45,23,182.5,,,242.5,,,SBD
1,Alexander Acosta,Juniors 20-23,Raw,M,CA,110,103.5,22,237.5,,175,262.5,,675,SBD
2,Corbin Boggs,Juniors 20-23,Raw,M,OH,110,109.2,22,237.5,,145,280,,662.5,SBD
3,Juan Santoyo,Juniors 20-23,Raw,M,NV,110,108.15,21,267.5,,145,237.5,,650,SBD
4,Josh Battersby,Juniors 20-23,Raw,M,CA,110,102,21,230,,140,250,,620,SBD
5,Ryan Humphreys,Juniors 20-23,Raw,M,NC,110,109.95,23,205,,150,265,,620,SBD
1,Collin Curtiss,Juniors 20-23,Raw,M,NV,125,115.9,23,250,,202.5,275,,727.5,SBD
1,Frederic Agunat,Juniors 20-23,Raw,M,CA,140,137.2,23,247.5,,167.5,267.5,,682.5,SBD
1,Emmanuel Bravo,Juniors 20-23,Raw,M,CA,140+,168.3,22,295,,205,282.5,,782.5,SBD
1,Andrew Thao,Open,Raw,M,CA,60,60,16,135,,85,165,,385,SBD
1,Jamario Latter,Open,Raw,M,HI,67.5,67.1,25,177.5,,110,227.5,,515,SBD
2,Kordell Cole,Open,Raw,M,OR,67.5,67.3,20,157.5,,100,215,,472.5,SBD
3,Jared Mishlove,Open,Raw,M,AZ,67.5,63.7,19,165,,110,195,,470,SBD
1,Ryan Hudson,Open,Raw,M,OR,75,74.95,37,230,,147.5,235,,612.5,SBD
2,Alex Nguyen,Open,Raw,M,CA,75,74.6,24,200,,142.5,252.5,,595,SBD
3,Ray Valdez,Open,Raw,M,TX,75,73.45,22,210,,125,252.5,,587.5,SBD
4,Xavier Counce,Open,Raw,M,NV,75,74.91,20,195,,117.5,265,,577.5,SBD
5,Alfred Villoch,Open,Raw,M,FL,75,73.65,38,182.5,,137.5,255,,575,SBD
6,Rogelio Magbual Jr,Open,Raw,M,NV,75,74.6,26,180,,157.5,235,,572.5,SBD
7,Alfred Resngit,Open,Raw,M,CA,75,73.85,30,187.5,,127.5,250,,565,SBD
8,Bryan Stout,Open,Raw,M,TX,75,73.8,31,192.5,,130,227.5,,550,SBD
9,Nick Bustos,Open,Raw,M,CA,75,73.05,20,185,,122.5,235,,542.5,SBD
10,Jered Stoffal,Open,Raw,M,OR,75,74.4,24,177.5,,142.5,222.5,,542.5,SBD
11,Jay Snelgove,Open,Raw,M,OK,75,74.4,25,170,,115,227.5,,512.5,SBD
12,Michael Peterson,Open,Raw,M,CA,75,72.6,25,170,,102.5,225,,497.5,SBD
1,Kevin Torres,Open,Raw,M,CA,82.5,81.4,22,265,,200,292.5,,757.5,SBD
2,Andrew Sia,Open,Raw,M,MD,82.5,79.45,25,247.5,,175,280,,702.5,SBD
3,Adam Osmoe,Open,Raw,M,IL,82.5,82,23,262.5,,167.5,250,,680,SBD
4,Taras Chavarha,Open,Raw,M,CA,82.5,81.2,25,250,,155,250,,655,SBD
5,Blaine Erway,Open,Raw,M,NV,82.5,81.65,25,197.5,,165,247.5,,610,SBD
6,Miguel Arreaga,Open,Raw,M,CA,82.5,82.1,32,180,,150,250,,580,SBD
7,David Bassett,Open,Raw,M,IL,82.5,81.3,42,210,,172.5,195,,577.5,SBD
8,Kemper Harris,Open,Raw,M,VA,82.5,81.8,25,200,,140,210,,550,SBD
1,Maliek Derstine,Open,Raw,M,PA,90,89.3,28,353,,245,277.5,,875.5,SBD
2,Lance Inman,Open,Raw,M,NV,90,89.3,33,247.5,,192.5,282.5,,722.5,SBD
3,Willie Pace,Open,Raw,M,CA,90,89.7,28,255,,197.5,257.5,,710,SBD
4,Kawika David Henderson,Open,Raw,M,AZ,90,89.9,30,235,,172.5,282.5,,690,SBD
5,Jorge Gonzalez #3,Open,Raw,M,NV,90,89.75,26,235,,177.5,267.5,,680,SBD
6,Joseph Williams,Open,Raw,M,AL,90,89.4,32,217.5,,150,297.5,,665,SBD
7,William Moorman,Open,Raw,M,CA,90,89.55,29,240,,145,277.5,,662.5,SBD
8,James Clifford,Open,Raw,M,NV,90,88.9,26,225,,142.5,287.5,,655,SBD
9,Kirk Whittenberg,Open,Raw,M,NC,90,88.2,34,217.5,,175,257.5,,650,SBD
10,Tyler Schaeffer,Open,Raw,M,CA,90,87.4,29,232.5,,147.5,257.5,,637.5,SBD
11,Vincent Clarin,Open,Raw,M,AZ,90,89.15,25,225,,130,272.5,,627.5,SBD
12,Tanner McBride,Open,Raw,M,NV,90,89.4,24,220,,147.5,252.5,,620,SBD
13,Sean Henry,Open,Raw,M,TX,90,89.4,24,222.5,,132.5,252.5,,607.5,SBD
14,Matt Logan,Open,Raw,M,CA,90,88.2,29,175,,145,272.5,,592.5,SBD
DQ,Kevin Anderson,Open,Raw,M,TX,90,85,22,215,,130,,,,SBD
DQ,Landon De Castro Verde,Open,Raw,M,NV,90,87.35,22,215,,,,,,SBD
DQ,Jake Benson,Open,Raw,M,UT,90,88.95,22,,,,,,,SBD
1,Jonathan Pritchard,Open,Raw,M,TX,100,99.6,29,300,,212.5,300,,812.5,SBD
2,Ryan Kimball,Open,Raw,M,LA,100,99.25,29,277.5,,192.5,320,,790,SBD
3,Shane Moat,Open,Raw,M,IN,100,98.05,36,250,,205,295,,750,SBD
4,Brennon Peterson,Open,Raw,M,UT,100,98.05,23,245,,162.5,317.5,,725,SBD
5,Ollie Meadows,Open,Raw,M,CA,100,97.3,32,250,,182.5,272.5,,705,SBD
6,Gilbert Lial,Open,Raw,M,CA,100,98.9,26,255,,177.5,265,,697.5,SBD
7,Timothy Mercer,Open,Raw,M,OR,100,94.5,36,240,,172.5,260,,672.5,SBD
8,Troy Zuroske,Open,Raw,M,WA,100,98.9,24,220,,142.5,295,,657.5,SBD
9,Amitoj Chhabra,Open,Raw,M,NV,100,98.9,21,232.5,,155,260,,647.5,SBD
DQ,Tyler Lyness,Open,Raw,M,CA,100,96.45,23,182.5,,,242.5,,,SBD
1,John Rivas,Open,Raw,M,VA,110,109.2,26,337.5,,232.5,377.5,,947.5,SBD
2,Dustin Sixkiller,Open,Raw,M,VA,110,109.9,31,265,,182.5,305,,752.5,SBD
3,Bradly Bechel,Open,Raw,M,IL,110,109.35,30,260,,227.5,260,,747.5,SBD
4,Travis Parker,Open,Raw,M,SD,110,107.3,49,277.5,,180,287.5,,745,SBD
5,Carlos Castro,Open,Raw,M,NV,110,109.95,26,295,,162.5,285,,742.5,SBD
6,Qua Scott,Open,Raw,M,NV,110,109.55,28,255,,187.5,260,,702.5,SBD
7,Robert Baker,Open,Raw,M,TX,110,107.4,30,250,,160,280,,690,SBD
8,Corbin Boggs,Open,Raw,M,OH,110,109.2,22,237.5,,145,280,,662.5,SBD
9,Justin Dubs,Open,Raw,M,TX,110,110,28,122.5,,192.5,337.5,,652.5,SBD
10,Justin Leffler,Open,Raw,M,NV,110,108.2,27,217.5,,145,272.5,,635,SBD
11,Ryan Humphreys,Open,Raw,M,NC,110,109.95,23,205,,150,265,,620,SBD
1,Andy Huang #1,Open,Raw,M,LA,125,122.1,31,365,,227.5,372.5,,965,SBD
2,Mason Cervantes,Open,Raw,M,CA,125,117.65,30,315,,210,337.5,,862.5,SBD
3,John Mazza,Open,Raw,M,UT,125,123.7,35,295,,227.5,327.5,,850,SBD
4,Lance Keys,Open,Raw,M,CA,125,122.6,32,272.5,,215,320,,807.5,SBD
5,James Strickland,Open,Raw,M,TX,125,121.75,35,250,,257.5,287.5,,795,SBD
6,Cole Hale,Open,Raw,M,CA,125,122,24,287.5,,185,300,,772.5,SBD
7,Collin Curtiss,Open,Raw,M,NV,125,115.9,23,250,,202.5,275,,727.5,SBD
8,Sinjin Howerton,Open,Raw,M,NV,125,122.8,24,222.5,,195,300,,717.5,SBD
9,Garret Bromley,Open,Raw,M,TX,125,117,35,240,,182.5,285,,707.5,SBD
10,Pete Pele,Open,Raw,M,NV,125,124.45,28,237.5,,160,300,,697.5,SBD
11,Victor Filipe,Open,Raw,M,OR,125,121.55,33,230,,160,285,,675,SBD
12,Spencer Smith,Open,Raw,M,CA,125,118,24,215,,160,287.5,,662.5,SBD
13,Alex Stanley,Open,Raw,M,OR,125,124.1,29,215,,155,292.5,,662.5,SBD
14,Greg Simpson,Open,Raw,M,GA,125,118.7,46,242.5,,170,245,,657.5,SBD
15,Peter Butterfield,Open,Raw,M,TX,125,122.65,46,220,,137.5,265,,622.5,SBD
DQ,Michael Kratz,Open,Raw,M,TX,125,114.15,34,237.5,,,250,,,SBD
1,Jeff Younker,Open,Raw,M,TX,140,138.75,29,310,,237.5,360,,907.5,SBD
2,Daniel Hawkins,Open,Raw,M,TX,140,127.6,30,325,,217.5,307.5,,850,SBD
3,Gino Catugda,Open,Raw,M,CA,140,136.4,25,315,,205,307.5,,827.5,SBD
4,Brad Arbic,Open,Raw,M,FL,140,135.45,33,310,,205,310,,825,SBD
5,Jason Ramos,Open,Raw,M,CA,140,138.55,30,302.5,,207.5,295,,805,SBD
6,Frederic Agunat,Open,Raw,M,CA,140,137.2,23,247.5,,167.5,267.5,,682.5,SBD
1,Jake Johns,Open,Raw,M,CA,140+,148.45,29,372.5,,265,375,,1012.5,SBD
2,Emmanuel Bravo,Open,Raw,M,CA,140+,168.3,22,295,,205,282.5,,782.5,SBD
3,Evan Roberts,Open,Raw,M,CA,140+,145.35,27,275,,195,285,,755,SBD
4,John James,Open,Raw,M,VA,140+,145.15,53,262.5,,172.5,295,,730,SBD
5,Joseph Llamas,Open,Raw,M,CA,140+,148.3,33,255,,172.5,255,,682.5,SBD
6,Travis Heck,Open,Raw,M,CA,140+,151.5,45,240,,197.5,245,,682.5,SBD
DQ,Brandon Allen #1,Open,Raw,M,NV,140+,156.8,27,,,,,,,SBD
1,Ryan Hudson,Submasters 35-39,Raw,M,OR,75,74.95,37,230,,147.5,235,,612.5,SBD
2,Alfred Villoch,Submasters 35-39,Raw,M,FL,75,73.65,38,182.5,,137.5,255,,575,SBD
3,Chris Lentini,Submasters 35-39,Raw,M,AL,75,74.2,39,170,,140,215,,525,SBD
1,Timothy Mercer,Submasters 35-39,Raw,M,OR,100,94.5,36,240,,172.5,260,,672.5,SBD
2,David Wallace,Submasters 35-39,Raw,M,AL,100,98.7,39,207.5,,162.5,260,,630,SBD
1,Jared Robinson,Submasters 35-39,Raw,M,CA,110,104.55,38,210,,172.5,277.5,,660,SBD
1,John Mazza,Submasters 35-39,Raw,M,UT,125,123.7,35,295,,227.5,327.5,,850,SBD
2,Garret Bromley,Submasters 35-39,Raw,M,TX,125,117,35,240,,182.5,285,,707.5,SBD
1,Francisco Pardorla,Masters 45-49,Raw,M,CA,60,58.5,49,135,,113,160.5,,408.5,SBD
1,Mark Schultz,Masters 55-59,Raw,M,WA,60,59.65,57,115,,82.5,180,,377.5,SBD
1,David Bassett,Masters 40-44,Raw,M,IL,82.5,81.3,42,210,,172.5,195,,577.5,SBD
1,Michael Stevens,Masters 60-64,Raw,M,IN,82.5,81.75,61,125,,92.5,170,,387.5,SBD
1,George Davis,Masters 65-69,Raw,M,CA,82.5,78.5,65,145,,85,145,,375,SBD
1,Scott Shirley,Masters 40-44,Raw,M,AL,90,89.8,43,212.5,,132.5,237.5,,582.5,SBD
1,Doug Carroll,Masters 55-59,Raw,M,CA,100,99.55,55,195,,127.5,272.5,,595,SBD
2,Thomas Demer,Masters 55-59,Raw,M,TX,100,96.9,58,172.5,,107.5,217.5,,497.5,SBD
3,Steve Covington,Masters 55-59,Raw,M,CA,100,97.7,55,167.5,,130,192.5,,490,SBD
1,Travis Parker,Masters 45-49,Raw,M,SD,110,107.3,49,277.5,,180,287.5,,745,SBD
DQ,Albert Tamayo,Masters 55-59,Raw,M,FL,110,106.1,55,,,,,,,SBD
1,David Bialski,Masters 40-44,Raw,M,FL,125,123.4,42,250,,145,295,,690,SBD
1,John Dignan #2,Masters 45-49,Raw,M,NV,125,117.6,48,260,,157.5,267.5,,685,SBD
2,Greg Simpson,Masters 45-49,Raw,M,GA,125,118.7,46,242.5,,170,245,,657.5,SBD
3,Peter Butterfield,Masters 45-49,Raw,M,TX,125,122.65,46,220,,137.5,265,,622.5,SBD
1,Kurt Gray,Masters 50-54,Raw,M,OK,125,121.95,52,217.5,,155,252.5,,625,SBD
2,David Earp,Masters 50-54,Raw,M,FL,125,122.9,53,60,,152.5,100,,312.5,SBD
1,Travis Heck,Masters 45-49,Raw,M,CA,140+,151.5,45,240,,197.5,245,,682.5,SBD
1,John James,Masters 50-54,Raw,M,VA,140+,145.15,53,262.5,,172.5,295,,730,SBD
2,Mark Danyluk,Masters 50-54,Raw,M,CA,140+,160.6,50,192.5,,230,260,,682.5,SBD
1,Elizabeth West,Juniors 20-23,Wraps,F,WA,60,58.5,20,115,,62.5,120,,297.5,SBD
1,Isela Alcantara,Juniors 20-23,Wraps,F,CA,82.5,80.45,21,165,,72.5,182.5,,420,SBD
2,Claire Victor,Juniors 20-23,Wraps,F,MO,82.5,81.95,20,155,,82.5,172.5,,410,SBD
3,Alejandra Acosta,Juniors 20-23,Wraps,F,CA,82.5,78.4,23,115,,60,152.5,,327.5,SBD
1,Thalia Soto,Juniors 13-15,Wraps,F,CA,90+,106.3,15,217.5,220,95,197.5,,510,SBD
1,Blanca Villoch,Open,Wraps,F,FL,56,54.35,32,145,,87.5,170,,402.5,SBD
1,Tricia Downing,Open,Wraps,F,AZ,60,59.85,41,121.5,127.5,75,145,147.5,341.5,SBD
2,Elizabeth West,Open,Wraps,F,WA,60,58.5,20,115,,62.5,120,,297.5,SBD
1,Ellen Casale,Open,Wraps,F,AL,67.5,65.1,30,102.5,,67.5,137.5,,307.5,SBD
1,Malinda Barnes,Open,Wraps,F,AZ,75,74.9,37,157.5,,92.5,182.5,,432.5,SBD
1,Nicki I'Anson,Open,Wraps,F,CA,82.5,80.7,50,175,,82.5,202.5,,460,SBD
2,Sophia Hussary,Open,Wraps,F,AZ,82.5,82.5,39,142.5,,95,190,,427.5,SBD
3,Isela Alcantara,Open,Wraps,F,CA,82.5,80.45,21,165,,72.5,182.5,,420,SBD
4,Alejandra Acosta,Open,Wraps,F,CA,82.5,78.4,23,115,,60,152.5,,327.5,SBD
DQ,Chakera Ingram,Open,Wraps,F,TX,90,89.5,21,,,,,,,SBD
1,Thalia Soto,Open,Wraps,F,CA,90+,106.3,15,217.5,220,95,197.5,,510,SBD
1,Sophia Hussary,Submasters 35-39,Wraps,F,AZ,82.5,82.5,39,142.5,,95,190,,427.5,SBD
1,Tricia Downing,Masters 40-44,Wraps,F,AZ,60,59.85,41,121.5,127.5,75,145,147.5,341.5,SBD
1,Valentina Moreno,Masters 60-64,Wraps,F,CA,60,58,61,62.5,,50,95,,207.5,SBD
1,Cristina Ramirez,Masters 50-54,Wraps,F,AZ,75,74.4,53,95,,55,155,,305,SBD
1,Karla Johnson,Masters 45-49,Wraps,F,IN,82.5,75.7,49,95,,75,150,,320,SBD
1,Nicki I'Anson,Masters 50-54,Wraps,F,CA,82.5,80.7,50,175,,82.5,202.5,,460,SBD
1,Cha Moua,Juniors 16-17,Wraps,M,CA,60,56.2,17,117.5,,77.5,160,,355,SBD
1,Gerald Dionio,Juniors 20-23,Wraps,M,CA,67.5,65.8,22,232.5,,150,272.5,277.5,655,SBD
DQ,Samuel Nichols,Juniors 16-17,Wraps,M,NV,125,116.2,17,,,,,,,SBD
1,Colin Gould,Juniors 20-23,Wraps,M,WA,75,73.1,22,215,,92.5,220,,527.5,SBD
1,Jordan Whitman,Juniors 20-23,Wraps,M,NV,82.5,82.5,20,227.5,,145,245,,617.5,SBD
2,Allen Olvera,Juniors 20-23,Wraps,M,TX,82.5,82.01,21,217.5,,112.5,227.5,,557.5,SBD
3,Mundo Veloz,Juniors 20-23,Wraps,M,NV,82.5,80.2,23,207.5,,110,237.5,,555,SBD
1,Brian Guzman,Juniors 20-23,Wraps,M,CA,90,88.8,22,242.5,,150,247.5,,640,SBD
2,Dillon Stall,Juniors 20-23,Wraps,M,CA,90,89.35,23,207.5,,165,220,,592.5,SBD
1,Cameron Decker,Juniors 20-23,Wraps,M,KS,100,97.4,22,270,,167.5,280,,717.5,SBD
2,Manuel Torres,Juniors 20-23,Wraps,M,CA,100,97.45,23,267.5,,142.5,282.5,,692.5,SBD
3,Amrit-Pal Singh,Juniors 20-23,Wraps,M,CA,100,98.6,23,245,,160,245,,650,SBD
4,Drew Hagen,Juniors 20-23,Wraps,M,AZ,100,96.7,22,227.5,,165,250,,642.5,SBD
1,Richard Herrera,Juniors 18-19,Wraps,M,TX,110,106.75,19,175,,137.5,235,,547.5,SBD
1,Matt Scroggin,Juniors 20-23,Wraps,M,AZ,110,107.05,22,295,,182.5,295,,772.5,SBD
2,James Porter,Juniors 20-23,Wraps,M,WY,110,102.2,23,222.5,,167.5,267.5,,657.5,SBD
1,Ayele Blakemore,Juniors 16-17,Wraps,M,CA,125,118,17,260,,125,277.5,290,662.5,SBD
1,Laurence Carmichael,Juniors 20-23,Wraps,M,AL,125,122.9,21,280,,227.5,290,,797.5,SBD
2,Joshua Sanderson,Juniors 20-23,Wraps,M,AZ,125,120.1,23,307.5,,187.5,265,,760,SBD
1,Norman Black Jr,Juniors 18-19,Wraps,M,CA,140+,148.45,19,285,,187.5,282.5,,755,SBD
1,Richard Navarra,Open,Wraps,M,CA,56,56,25,167.5,,115.5,205,208,488,SBD
1,Jesse Lanuevo,Open,Wraps,M,CA,60,59.3,26,182.5,,112.5,222.5,,517.5,SBD
2,Cha Moua,Open,Wraps,M,CA,60,56.2,17,117.5,,77.5,160,,355,SBD
1,Gerald Dionio,Open,Wraps,M,CA,67.5,65.8,22,232.5,,150,272.5,277.5,655,SBD
2,Carlos Avalos,Open,Wraps,M,TX,67.5,66.1,24,215,,140,260,,615,SBD
1,Xavier Romero,Open,Wraps,M,CT,75,74.9,21,260,,125,260,,645,SBD
2,Johnny Consul,Open,Wraps,M,NY,75,74.55,27,207.5,,135,215,,557.5,SBD
3,James Waldrop,Open,Wraps,M,TX,75,73.7,34,180,,120,242.5,,542.5,SBD
DQ,James Rowland,Open,Wraps,M,CA,75,74.85,28,,,150,227.5,,,SBD
1,Brandon Boronda,Open,Wraps,M,CA,82.5,79.95,32,210,,192.5,265,,667.5,SBD
2,Allen Olvera,Open,Wraps,M,TX,82.5,82.01,21,217.5,,112.5,227.5,,557.5,SBD
1,Roy Glenn,Open,Wraps,M,CA,90,87,25,295,,177.5,282.5,,755,SBD
2,Eric Kratz #1,Open,Wraps,M,PA,90,89.65,41,245,,185,257.5,,687.5,SBD
3,Alexander Ducate,Open,Wraps,M,TX,90,89.3,29,215,,187.5,260,,662.5,SBD
DQ,Jason Ryan,Open,Wraps,M,TX,90,85.25,29,215,,,,,,SBD
1,Tra Farrington,Open,Wraps,M,NC,100,98.4,25,272.5,,227.5,365,,865,SBD
2,Gary Beerbower,Open,Wraps,M,CA,100,98.75,24,257.5,,182.5,320,,760,SBD
3,Dillon Smith,Open,Wraps,M,NV,100,97.4,24,282.5,,192.5,265,,740,SBD
4,James Grinstead,Open,Wraps,M,CA,100,99.2,27,272.5,,170,255,,697.5,SBD
5,Chris Flores,Open,Wraps,M,CA,100,94.65,45,232.5,,192.5,267.5,,692.5,SBD
DQ,Tom Sharp,Open,Wraps,M,AZ,100,99.75,25,,,180,,,,SBD
1,Christopher Austin Gordert,Open,Wraps,M,CA,110,107.65,26,295,,190,307.5,,792.5,SBD
2,Matt Scroggin,Open,Wraps,M,AZ,110,107.05,22,295,,182.5,295,,772.5,SBD
3,Ismael Hernandez,Open,Wraps,M,TX,110,105.8,36,292.5,,200,260,,752.5,SBD
4,Nate King,Open,Wraps,M,WA,110,109.1,27,247.5,,205,292.5,,745,SBD
5,Tommy Hastings,Open,Wraps,M,TX,110,109.15,41,257.5,,160,295.5,,713,SBD
6,Joseph Ferguson,Open,Wraps,M,CA,110,107.3,34,240,,175,290,,705,SBD
7,Andreas Gallagher,Open,Wraps,M,NV,110,109.65,35,250,,165,282.5,,697.5,SBD
8,Lawrence Garnett,Open,Wraps,M,TX,110,108.8,29,255,,167.5,265,,687.5,SBD
9,JD Marcum,Open,Wraps,M,KY,110,108.2,46,262.5,277.5,160,245,,667.5,SBD
10,James Porter,Open,Wraps,M,WY,110,102.2,23,222.5,,167.5,267.5,,657.5,SBD
DQ,Jason Torche,Open,Wraps,M,WA,110,101.05,30,,,,,,,SBD
1,Tyler Cotton,Open,Wraps,M,NJ,125,120.4,25,300,,205,340,,845,SBD
2,Lazaro Rodriguez Jr,Open,Wraps,M,CA,125,121.5,26,320,,192.5,320,,832.5,SBD
3,Laurence Carmichael,Open,Wraps,M,AL,125,122.9,21,280,,227.5,290,,797.5,SBD
4,Julius Visser,Open,Wraps,M,AZ,125,121.65,26,280,,210,280,,770,SBD
5,Joshua Sanderson,Open,Wraps,M,AZ,125,120.1,23,307.5,,187.5,265,,760,SBD
6,Jonathan Cotton,Open,Wraps,M,CO,125,119.5,32,245,,185,287.5,,717.5,SBD
DQ,Samuel Nichols,Open,Wraps,M,NV,125,116.2,17,,,,,,,SBD
DQ,Nick Rowland,Open,Wraps,M,AZ,125,121.95,28,297.5,,,337.5,,,SBD
DQ,Don Holcomb,Open,Wraps,M,TX,125,122.55,35,,,,,,,SBD
1,Tyler Ward,Open,Wraps,M,CA,140,139.9,27,327.5,,182.5,352.5,,862.5,SBD
1,Ethan Gonzalez #1,Open,Wraps,M,AZ,140+,152.7,32,295,,215,275,,785,SBD
2,David Douglas,Open,Wraps,M,CA,140+,150,29,102.5,,275,345,,722.5,SBD
1,Ismael Hernandez,Submasters 35-39,Wraps,M,TX,110,105.8,36,292.5,,200,260,,752.5,SBD
DQ,Don Holcomb,Submasters 35-39,Wraps,M,TX,125,122.55,35,,,,,,,SBD
DQ,Dan Holmes,Submasters 35-39,Wraps,M,CA,140+,153.6,39,,,,,,,SBD
1,Gordon Santee,Masters 65-69,Wraps,M,CA,60,59.6,69,75,,72.5,145,,292.5,SBD
1,Jerome Moylan,Masters 60-64,Wraps,M,CA,67.5,65.55,63,130,,75,142.5,,347.5,SBD
1,Daryl Holmes,Masters 65-69,Wraps,M,IN,75,74.1,68,115,,85,172.5,,372.5,SBD
DQ,Gary Loyd,Masters 45-49,Wraps,M,CA,82.5,81.95,48,,,137.5,220,,,SBD
1,Roy Taylor,Masters 75-79,Wraps,M,CA,82.5,79.95,76,102.5,,57.5,160,,320,SBD
1,Eric Kratz #1,Masters 40-44,Wraps,M,PA,90,89.65,41,245,,185,257.5,,687.5,SBD
1,Bob Kinsey,Masters 70-74,Wraps,M,CA,90,88.8,74,120,,75,165.5,,360.5,SBD
1,Dave Murphy,Masters 40-44,Wraps,M,CA,100,99.55,42,240,,172.5,215,,627.5,SBD
2,Scott Blake,Masters 40-44,Wraps,M,IN,100,99.5,44,205,,150,260,,615,SBD
1,Timothy Sparkes,Masters 45-49,Wraps,M,AZ,100,99.1,48,262.5,,125,310.5,,698,SBD
2,Chris Flores,Masters 45-49,Wraps,M,CA,100,94.65,45,232.5,,192.5,267.5,,692.5,SBD
3,Tim Copeland,Masters 45-49,Wraps,M,CA,100,99.25,49,210,,152.5,247.5,,610,SBD
1,Victor Calia,Masters 50-54,Wraps,M,NV,100,96.85,52,262.5,,155,267.5,,685,SBD
1,David Gomez,Masters 55-59,Wraps,M,TX,100,98.25,57,190,,110,192.5,,492.5,SBD
1,Greg Baxter,Masters 60-64,Wraps,M,CA,100,99.55,61,220,,120,262.5,,602.5,SBD
1,Tommy Hastings,Masters 40-44,Wraps,M,TX,110,109.15,41,257.5,,160,295.5,,713,SBD
1,JD Marcum,Masters 45-49,Wraps,M,KY,110,108.2,46,262.5,277.5,160,245,,667.5,SBD
2,Darren Robuck,Masters 45-49,Wraps,M,CA,110,108.4,49,227.5,,160,227.5,,615,SBD
1,Jerry Tremblay,Masters 50-54,Wraps,M,CA,110,108.4,53,227.5,,150,227.5,,605,SBD
DQ,Terry O'Neal,Masters 55-59,Wraps,M,AZ,110,105.95,56,,,,,,,SBD
1,Thomas Matlock,Masters 60-64,Wraps,M,AZ,110,109.8,64,192.5,,100,210.5,,503,SBD
1,Ron Pagal,Masters 70-74,Wraps,M,CA,110,103.5,70,167.5,,137.5,190,,495,SBD
DQ,Tim Crutchley,Masters 60-64,Wraps,M,CA,140,134.4,60,217.5,,,,,,SBD
1,Kristina Kanemoto,Juniors 20-23,Single-ply,F,CA,56,55.4,23,138,,77.5,165,172.5,380.5,SBD
1,Calie Chesler,Juniors 18-19,Single-ply,F,TX,67.5,66,18,148,,80,158,,386,SBD
1,Kristina Kanemoto,Open,Single-ply,F,CA,56,55.4,23,138,,77.5,165,172.5,380.5,SBD
2,Tamara McElwee,Open,Single-ply,F,AZ,56,54.5,48,120,,90,157.5,,367.5,SBD
1,Brook Anderson,Open,Single-ply,F,CO,67.5,66.8,40,147.5,,102.5,145,,395,SBD
1,Stephanie Stephens,Open,Single-ply,F,NV,75,71.7,36,177.5,,120,185,,482.5,SBD
1,Leonetta Richardson,Open,Single-ply,F,HI,90,88.45,38,205,,182.5,227.5,,615,SBD
2,Aura Sweeney,Open,Single-ply,F,CA,90,88.5,36,187.5,,135,155,,477.5,SBD
1,Kristine Rae Olmsted,Open,Single-ply,F,NC,90+,120.7,42,157.5,,92.5,157.5,,407.5,SBD
1,Leonetta Richardson,Submasters 35-39,Single-ply,F,HI,90,88.45,38,205,,182.5,227.5,,615,SBD
2,Aura Sweeney,Submasters 35-39,Single-ply,F,CA,90,88.5,36,187.5,,135,155,,477.5,SBD
1,Tamara McElwee,Masters 45-49,Single-ply,F,AZ,56,54.5,48,120,,90,157.5,,367.5,SBD
1,Brook Anderson,Masters 40-44,Single-ply,F,CO,67.5,66.8,40,147.5,,102.5,145,,395,SBD
1,Lisa Wheeler,Masters 45-49,Single-ply,F,CA,75,74,47,150,,67.5,155,,372.5,SBD
1,Betsy Spann,Masters 55-59,Single-ply,F,CA,75,71.3,59,122.5,,72.5,147.5,,342.5,SBD
1,Kristine Rae Olmsted,Masters 40-44,Single-ply,F,NC,90+,120.7,42,157.5,,92.5,157.5,,407.5,SBD
1,Cody Villa,Juniors 18-19,Single-ply,M,TX,60,59.7,19,197.5,,125,235,,557.5,SBD
1,Rajjat Chauhan,Juniors 18-19,Single-ply,M,WA,67.5,64.5,19,200,,105,207.5,,512.5,SBD
1,Jake Benedix,Juniors 20-23,Single-ply,M,FL,67.5,67.5,22,252.5,,155,232.5,,640,SBD
1,Cody Villa,Open,Single-ply,M,TX,60,59.7,19,197.5,,125,235,,557.5,SBD
1,Brett Benedix,Open,Single-ply,M,FL,67.5,67.5,20,277.5,,142.5,252.5,,672.5,SBD
2,Gary Hunter #1,Open,Single-ply,M,TX,67.5,64.7,29,187.5,,120,227.5,,535,SBD
3,Rajjat Chauhan,Open,Single-ply,M,WA,67.5,64.5,19,200,,105,207.5,,512.5,SBD
1,Shawn Buckley,Open,Single-ply,M,CA,100,99.3,33,370,,240,305,,915,SBD
1,Erick Baker #2,Open,Single-ply,M,TX,110,107.55,36,287.5,,215,305,,807.5,SBD
2,Andrew Kreidler,Open,Single-ply,M,FL,110,107.15,31,227.5,,185,250,,662.5,SBD
1,Erick Baker #2,Submasters 35-39,Single-ply,M,TX,110,107.55,36,287.5,,215,305,,807.5,SBD
1,Joe Walden,Masters 55-59,Single-ply,M,KS,75,74.45,59,200,,115,185,,500,SBD
1,Mark Cucinella,Masters 65-69,Single-ply,M,CO,75,72.2,66,190,,132.5,195,,517.5,SBD
1,Charles de Tranaltes,Masters 50-54,Single-ply,M,AZ,90,88.4,52,200,,157.5,242.5,,600,SBD
1,Parry Markle,Masters 55-59,Single-ply,M,ID,90,89.6,57,227.5,,190,260,,677.5,SBD
1,Jon Marshall,Masters 40-44,Single-ply,M,AZ,100,98.9,42,280,,195,250,,725,SBD
