Event,Sex,Division,WeightClassKg,Best3BenchKg,Bench4Kg,Best3DeadliftKg,Deadlift4Kg,TotalKg,Name,Country,State,Equipment,Place
B,M,Class 1,75,157.5,,,,157.5,Jeramie Dawley,,OR,Single-ply,1
B,M,Class 1,75,170,,,,170,James Lin,,WA,Multi-ply,1
B,M,Class 1,82.5,177.5,182.5,,,177.5,Jackson Jones,,WA,Multi-ply,1
B,M,Class 1,82.5,167.5,,,,167.5,Ray Segura,,WA,Single-ply,1
B,M,Class 1,82.5,147.5,153,,,147.5,Dylan Kuehl,,WA,Single-ply,2
B,M,Class 1,90,150.5,,,,150.5,Derek Kumagai,,WA,Multi-ply,1
B,M,Class 1,100,175,,,,175,George Merrill,,OR,Single-ply,1
B,M,Class 1,100,137.5,150.5,,,137.5,Will Potter,,WA,Multi-ply,1
B,M,Class 1,110,142.5,,,,142.5,Eric Cooley,,OR,Single-ply,1
B,M,Class 1,117.5,205,,,,205,Joe LaSalle,,WA,Single-ply,1
B,M,Disabled 2 20-39,48,59,60,,,59,Todd Moore,Canada,,Single-ply,1
B,M,Disabled 2 20-39,100,107.5,110,,,107.5,James Clifford,Canada,,Single-ply,1
B,M,Disabled 2 40-59,125,192.5,,,,192.5,Joseph Pyle,,OR,Single-ply,1
B,M,Juniors 20-25,75,157.5,,,,157.5,Jeramie Dawley,,OR,Single-ply,1
B,M,Law-Fire 40-47,117.5,172.5,,,,172.5,Bill Splawn,,WA,Single-ply,1
B,M,Law-Fire 48-55,100,237.5,,,,237.5,Brian Reynolds,,WA,Single-ply,1
B,M,Law-Fire 48-55,110,160,,,,160,Dave Ettinger,Canada,,Single-ply,1
B,M,Law-Fire 64,67.5,103,,,,103,Richard Rogers,,WA,Single-ply,1
B,M,Law-Fire 64,100,170,,,,170,Jon Wolbers,Canada,,Multi-ply,1
B,M,Masters 40-46,75,170,,,,170,James Lin,,WA,Multi-ply,1
B,M,Masters 40-46,82.5,150,,,,150,Shawn Oliphant,,OR,Single-ply,1
B,M,Masters 40-46,100,160,,,,160,George Price,,WA,Single-ply,1
B,M,Masters 40-46,110,197.5,,,,197.5,John Anthony,,OR,Single-ply,1
B,M,Masters 40-46,125,227.5,,,,227.5,Dawane Harris,,OR,Single-ply,1
B,M,Masters 40-46,140,185,,,,185,Steve Klassen,Canada,,Single-ply,1
B,M,Masters 40-46,140,155,,,,155,Thomas Washburn,,WA,Single-ply,2
B,M,Masters 47-53,75,140,145.5,,,140,Keith Cunningham,,WA,Multi-ply,1
B,M,Masters 47-53,100,237.5,,,,237.5,Brian Reynolds,,WA,Single-ply,1
B,M,Masters 47-53,100,175,,,,175,George Merrill,,OR,Single-ply,2
B,M,Masters 54-60,67.5,197.5,,,,197.5,Alfredo Evangelista,,OR,Multi-ply,1
B,M,Masters 54-60,82.5,145,,,,145,Leamon Woodley,,WA,Single-ply,1
B,M,Masters 54-60,90,142.5,,,,142.5,Phil Fernandes,,WA,Single-ply,1
B,M,Masters 54-60,100,160,,,,160,James Spainhower,,WA,Single-ply,1
B,M,Masters 54-60,140+,235,,,,235,Joe Mickelson,,WA,Single-ply,1
B,M,Masters 61-67,67.5,103,,,,103,Richard Rogers,,WA,Single-ply,1
B,M,Masters 61-67,90,182.5,,,,182.5,Nin Beseda,,WA,Single-ply,1
B,M,Masters 61-67,100,170,,,,170,Jon Wolbers,Canada,,Multi-ply,1
B,M,Masters 61-67,100,127.5,,,,127.5,Ron Axtman,,ID,Single-ply,1
B,M,Masters 61-67,110,145,,,,145,Tom La Fors,,WA,Single-ply,1
B,M,Masters 61-67,117.5,182.5,,,,182.5,Willard Crossen Jr,,WA,Single-ply,1
B,M,Masters 61-67,140,170,,,,170,Larry Riskey,,OR,Single-ply,1
B,M,Masters 68-74,75,115.5,117.5,,,115.5,Gary Witzel,,WA,Multi-ply,1
B,M,Masters 68-74,82.5,85,,,,85,Ron White,,WA,Single-ply,1
B,M,Masters 68-74,100,132.5,,,,132.5,Godfrey Holzinger,,WA,Single-ply,1
B,M,Open,67.5,197.5,,,,197.5,Alfredo Evangelista,,OR,Multi-ply,1
B,M,Open,75,230,,,,230,Willard Crossen III,,WA,Single-ply,1
B,M,Open,82.5,145,,,,145,Leamon Woodley,,WA,Single-ply,1
B,M,Open,110,155,,,,155,Nicholas Skinner,,WA,Single-ply,1
B,M,Open,117.5,182.5,,,,182.5,Willard Crossen Jr,,WA,Single-ply,1
B,M,Open,140+,235,,,,235,Joe Mickelson,,WA,Single-ply,1
B,M,Special Olympian,82.5,147.5,153,,,147.5,Dylan Kuehl,,WA,Single-ply,1
B,M,Special Olympian,140,65,,,,65,Randolph Pieren,,OR,Single-ply,1
B,M,Submasters 33-39,75,230,,,,230,Willard Crossen III,,WA,Single-ply,1
B,M,Submasters 33-39,75,117.5,,,,117.5,Brian Mitchell,,ID,Single-ply,2
B,M,Teen 12-13,52,85.5,,,,85.5,Kaison Uehara,,OR,Single-ply,1
B,M,Teen 12-13,75,72.5,,,,72.5,Braxton Mikesell,,WA,Single-ply,1
B,M,Teen 18-19,82.5,142.5,,,,142.5,Charles Vaughn,,OR,Single-ply,1
B,M,Teen 18-19,100,187.5,,,,187.5,Michael Frederick,,WA,Single-ply,1
B,M,Teen 18-19,117.5,122.5,,,,122.5,Nathan Smith #2,,WA,Single-ply,1
D,M,Class 1,82.5,,,227.5,,227.5,Jackson Jones,,WA,Single-ply,1
D,M,Class 1,82.5,,,210,,210,Ben Dehghan,,WA,Single-ply,2
D,M,Class 1,82.5,,,210,,210,Ray Segura,,WA,Single-ply,3
D,M,Class 1,90,,,260,,260,Zachary Freemantle,,WA,Single-ply,1
D,M,Class 1,90,,,192.5,,192.5,Steven Pontius,,WA,Single-ply,2
D,M,Disabled 2 20-39,48,,,98,100,98,Todd Moore,Canada,,Single-ply,1
D,M,Disabled 2 20-39,82.5,,,170,,170,Dylan Kuehl,,WA,Single-ply,1
D,M,Disabled 2 20-39,100,,,145,147.5,145,James Clifford,Canada,,Single-ply,1
D,M,Disabled 2 40-59,125,,,253,,253,Dawane Harris,,OR,Single-ply,1
D,M,Juniors 20-25,140+,,,207.5,,207.5,Joshua Koch,,OR,Single-ply,2
D,M,Juniors 20-25,140+,,,247.5,,247.5,Tim Washburn,,WA,Single-ply,1
D,M,Law-Fire 40-47,100,,,300,,300,Troy Fryar,,WA,Single-ply,1
D,M,Law-Fire 40-47,117.5,,,235,,235,Bill Splawn,,WA,Single-ply,1
D,M,Law-Fire 48-55,110,,,185,,185,Dave Ettinger,Canada,,Single-ply,1
D,M,Law-Fire 64,67.5,,,137.5,,137.5,Richard Rogers,,WA,Single-ply,1
D,M,Law-Fire 64,100,,,260,,260,Jon Wolbers,Canada,,Multi-ply,1
D,M,Law-Fire 64,125,,,242.5,,242.5,Mike Fryar,,WA,Single-ply,1
D,M,Law-Fire Open,90,,,227.5,,227.5,Nick Berriman,,OR,Single-ply,1
D,M,Law-Fire Open,100,,,300,,300,Troy Fryar,,WA,Single-ply,1
D,M,Law-Fire Submasters,90,,,227.5,,227.5,Nick Berriman,,OR,Single-ply,1
D,M,Masters 40-46,67.5,,,182.5,,182.5,Oscar Martinez,,WA,Single-ply,1
D,M,Masters 40-46,75,,,195,,195,James Lin,,WA,Single-ply,1
D,M,Masters 40-46,100,,,235,,235,George Price,,WA,Single-ply,1
D,M,Masters 40-46,110,,,290,,290,John Anthony,,OR,Single-ply,1
D,M,Masters 40-46,125,,,253,,253,Dawane Harris,,OR,Single-ply,1
D,M,Masters 40-46,140,,,227.5,,227.5,Steve Klassen,Canada,,Single-ply,1
D,M,Masters 47-53,75,,,227.5,,227.5,Keith Cunningham,,WA,Single-ply,1
D,M,Masters 47-53,75,,,200,,200,Eric Lumpkin,,OR,Single-ply,2
D,M,Masters 47-53,90,,,242.5,,242.5,Richard Joachim,,OR,Single-ply,1
D,M,Masters 47-53,125,,,300,,300,Joe Fernandez,,OR,Single-ply,2
D,M,Masters 47-53,125,,,312.5,,312.5,Brent Mikesell,,WA,Single-ply,1
D,M,Masters 54-60,60,,,177.5,,177.5,Kajohn Southwood,,WA,Single-ply,1
D,M,Masters 54-60,67.5,,,205,,205,Alfredo Evangelista,,OR,Multi-ply,1
D,M,Masters 54-60,82.5,,,280,,280,Leamon Woodley,,WA,Single-ply,1
D,M,Masters 54-60,140+,,,250,,250,Joe Mickelson,,WA,Single-ply,1
D,M,Masters 61-67,100,,,260,,260,Jon Wolbers,Canada,,Multi-ply,1
D,M,Masters 61-67,140,,,157.5,,157.5,Larry Riskey,,OR,Single-ply,1
D,M,Masters 68-74,75,,,150,,150,Gary Witzel,,WA,Single-ply,1
D,M,Masters 68-74,82.5,,,87.5,,87.5,Ron White,,WA,Single-ply,1
D,M,Masters 68-74,100,,,185,,185,Godfrey Holzinger,,WA,Single-ply,1
D,M,Masters 68-74,125,,,242.5,,242.5,Mike Fryar,,WA,Single-ply,1
D,M,Open,67.5,,,205,,205,Alfredo Evangelista,,OR,Multi-ply,1
D,M,Open,82.5,,,280,,280,Leamon Woodley,,WA,Single-ply,1
D,M,Open,110,,,237.5,,237.5,Nicholas Skinner,,WA,Single-ply,1
D,M,Open,125,,,300,,300,Joe Fernandez,,OR,Single-ply,1
D,M,Open,140+,,,250,,250,Joe Mickelson,,WA,Single-ply,1
D,M,Special Olympian,82.5,,,170,,170,Dylan Kuehl,,WA,Single-ply,1
D,M,Special Olympian,140,,,75,85,75,Randolph Pieren,,OR,Single-ply,1
D,M,Submasters 33-39,75,,,200,,200,Brian Mitchell,,ID,Single-ply,1
D,M,Teen 12-13,75,,,170,,170,Braxton Mikesell,,WA,Single-ply,1
D,M,Teen 12-13,100,,,125,142.5,125,Brennan Ettinger,Canada,,Single-ply,1
D,M,Teen 16-17,82.5,,,222.5,,222.5,Zane Vanderwal,,WA,Single-ply,1
D,M,Teen 16-17,90,,,187.5,,187.5,Michael Hackler,,WA,Single-ply,1
D,M,Teen 18-19,117.5,,,215,,215,Nathan Smith #2,,WA,Single-ply,1
BD,M,Disabled 2 20-39,48,59,60,98,100,157,Todd Moore,Canada,,Single-ply,1
BD,M,Law-Fire 40-47,117.5,172.5,,235,,407.5,Bill Splawn,,WA,Single-ply,1
BD,M,Law-Fire 48-55,110,160,,185,,345,Dave Ettinger,Canada,,Single-ply,1
BD,M,Law-Fire 64,100,170,,260,,430,Jon Wolbers,Canada,,Multi-ply,1
BD,M,Masters 40-46,110,197.5,,290,,487.5,John Anthony,,OR,Single-ply,1
BD,M,Masters 40-46,125,227.5,,253,,480.5,Dawane Harris,,OR,Single-ply,1
BD,M,Masters 54-60,67.5,197.5,,205,,402.5,Alfredo Evangelista,,OR,Multi-ply,1
BD,M,Masters 54-60,82.5,145,,280,,425,Leamon Woodley,,WA,Single-ply,1
BD,M,Masters 54-60,140+,235,,250,,485,Joe Mickelson,,WA,Single-ply,1
BD,M,Masters 61-67,100,170,,260,,430,Jon Wolbers,Canada,,Multi-ply,1
BD,M,Masters 68-74,100,132.5,,185,,317.5,Godfrey Holzinger,,WA,Single-ply,1
BD,M,Open,67.5,197.5,,205,,402.5,Alfredo Evangelista,,OR,Multi-ply,1
BD,M,Open,82.5,145,,280,,425,Leamon Woodley,,WA,Single-ply,1
BD,M,Submasters 33-39,75,117.5,,200,,317.5,Brian Mitchell,,ID,Single-ply,1
B,F,Class 1,52,45,,,,45,Melody Younglove,,WA,Single-ply,1
B,F,Class 1,56,37.5,,,,37.5,Jeanne Morris,,WA,Single-ply,1
B,F,Class 1,67.5,45,,,,45,Linda Weigel,,WA,Single-ply,1
B,F,Class 1,82.5,65,,,,65,DeAnna Dutton,,WA,Multi-ply,1
B,F,Class 1,90,80,,,,80,Sarah Hartman,,WA,Single-ply,1
B,F,Class 1,90,57.5,,,,57.5,Cassandra Smith,,WA,Single-ply,2
B,F,Class 1,90+,87.5,,,,87.5,Kay Kadoun,,WA,Single-ply,1
B,F,Class 1,90+,50,,,,50,Mona La Fors,,WA,Single-ply,2
B,F,Juniors 20-25,82.5,105,112.5,,,105,Kayla Sua,,WA,Single-ply,1
B,F,Law-Fire Open,90,157.5,,,,157.5,Alisha Howard,,WA,Single-ply,1
B,F,Masters 47-53,60,72.5,,,,72.5,Rebecca Moore,,WA,Multi-ply,1
B,F,Masters 47-53,100,101,,,,101,Linda Gerking,,WA,Multi-ply,1
B,F,Masters 54-60,90,72.5,,,,72.5,Margie Huston,,WA,Single-ply,1
B,F,Masters 68-74,82.5,97.5,,,,97.5,Pat Robey,,WA,Single-ply,1
B,F,Open,67.5,77.5,,,,77.5,Kimberly Phanthavong,,WA,Single-ply,1
B,F,Open,67.5,55,,,,55,Jessica Ewert,,WA,Single-ply,2
B,F,Open,90,126,,,,126,Mary Denning,,WA,Multi-ply,1
B,F,Submasters 33-39,90,126,,,,126,Mary Denning,,WA,Multi-ply,1
B,F,Submasters 33-39,90,157.5,,,,157.5,Alisha Howard,,WA,Single-ply,1
B,F,Teen 12-13,44,32.5,,,,32.5,Autumn Allen,,OR,Single-ply,1
B,F,Teen 18-19,67.5,60,,,,60,Sierra Johnson,,OR,Single-ply,1
D,F,Class 1,56,,,100,,100,Jeanne Morris,,WA,Single-ply,1
D,F,Class 1,60,,,105,,105,Rebecca Moore,,WA,Single-ply,1
D,F,Class 1,67.5,,,105,110,105,Susan Chloupek,,WA,Single-ply,1
D,F,Class 1,67.5,,,95,97.5,95,Linda Weigel,,WA,Single-ply,2
D,F,Class 1,82.5,,,125,137.5,125,DeAnna Dutton,,WA,Single-ply,1
D,F,Class 1,90,,,132.5,,132.5,Mary Denning,,WA,Single-ply,2
D,F,Class 1,90,,,182.5,,182.5,Sarah Hartman,,WA,Single-ply,1
D,F,Class 1,100,,,160,,160,Linda Gerking,,WA,Single-ply,1
D,F,Class 1,90+,,,152.5,,152.5,Kay Kadoun,,WA,Single-ply,1
D,F,Juniors 20-25,56,,,135,,135,Lauren Johnson,,OR,Single-ply,1
D,F,Juniors 20-25,82.5,,,185,198,185,Kayla Sua,,WA,Single-ply,1
D,F,Law-Fire Open,90,,,202.5,,202.5,Alisha Howard,,WA,Single-ply,1
D,F,Masters 47-53,75,,,147.5,,147.5,Shiela Southwood,,WA,Single-ply,1
D,F,Masters 47-53,90,,,192.5,,192.5,Jennifer Taylor,,OR,Single-ply,1
D,F,Masters 54-60,48,,,97.5,,97.5,Debbie Rogers,,WA,Single-ply,1
D,F,Masters 54-60,90,,,165,,165,Margie Huston,,WA,Single-ply,1
D,F,Masters 61-67,67.5,,,105,110,105,Susan Chloupek,,WA,Single-ply,1
D,F,Masters 68-74,82.5,,,115,,115,Pat Robey,,WA,Single-ply,1
D,F,Open,67.5,,,147.5,,147.5,Jessica Ewert,,WA,Single-ply,2
D,F,Open,67.5,,,160,,160,Kimberly Phanthavong,,WA,Single-ply,1
D,F,Open,90,,,192.5,,192.5,Jennifer Taylor,,OR,Single-ply,1
D,F,Submasters 33-39,90,,,202.5,,202.5,Alisha Howard,,WA,Single-ply,1
D,F,Teen 12-13,44,,,65,,65,Autumn Allen,,OR,Single-ply,1
BD,F,Class 1,56,37.5,,100,,137.5,Jeanne Morris,,WA,Single-ply,1
BD,F,Class 1,90+,87.5,,152.5,,240,Kay Kadoun,,WA,Single-ply,1
BD,F,Masters 54-60,90,72.5,,165,,237.5,Margie Huston,,WA,Single-ply,1
BD,F,Teen 12-13,44,32.5,,65,,97.5,Autumn Allen,,OR,Single-ply,1
