Name,Place,Sex,WeightClassKg,Age,Division,Event,Best3SquatKg,Best3BenchKg,Best3DeadliftKg,TotalKg,Equipment
Mary Pennington,1,F,90,,Open,B,,79.83,,79.83,Single-ply
Larry Tamura,1,M,60,,Masters 50-54,B,,69.85,,69.85,Single-ply
Adam Contreras,1,M,67.5,13,Juniors 13-15,B,,47.17,,47.17,Single-ply
Jose Chavez,1,M,75,,Open,B,,102.06,,102.06,Single-ply
Richard Lopez,2,M,75,,Open,B,,99.79,,99.79,Single-ply
Harrison Benner,1,M,75,80,Masters 80+,B,,87.09,,87.09,Single-ply
Gary Nishida,1,M,82.5,,Open,B,,137.44,,137.44,Single-ply
Ken Tate,1,M,82.5,,Submasters 35-39,B,,167.38,,167.38,Single-ply
Andrew Hoyos,1,M,82.5,,Masters 40-44,B,,122.47,,122.47,Single-ply
Gary Nishida,1,M,82.5,,Masters 45-49,B,,137.44,,137.44,Single-ply
Scott Marcinek,1,M,90,,Submasters 35-39,B,,169.64,,169.64,Single-ply
Lance Claggett,1,M,90,,Masters 40-44,B,,129.73,,129.73,Single-ply
Sam Collela,1,M,90,,Masters 65-69,B,,119.75,,119.75,Single-ply
Ricardo Echeverria,1,M,100,,Masters 45-49,B,,187.33,,187.33,Single-ply
John Parker,1,M,100,,Masters 55-59,B,,119.75,,119.75,Single-ply
Alberto Franco,1,M,110,,Open,B,,227.25,,227.25,Single-ply
Bobby Lopez,2,M,110,,Open,B,,199.58,,199.58,Single-ply
Darren Robuck,3,M,110,,Open,B,,199.58,,199.58,Single-ply
Ray Cosio,4,M,110,,Open,B,,184.61,,184.61,Single-ply
Alvin Waldon,DQ,M,110,,Open,B,,,,,Single-ply
Mike Nakamura,1,M,110,,Masters 50-54,B,,129.73,,129.73,Single-ply
Robert Speno,1,M,125,,Open,B,,202.3,,202.3,Single-ply
Mike Cunningham,1,M,125,,Masters 55-59,B,,174.63,,174.63,Single-ply
Danny Herrera,1,M,125,,Masters 60-64,B,,182.34,,182.34,Single-ply
Paul Leonard,1,M,140,,Open,B,,242.22,,242.22,Single-ply
Steve Brown #3,1,M,140,,Masters 45-49,B,,209.56,,209.56,Single-ply
Bill Garvey,1,M,140,,Masters 50-54,B,,174.63,,174.63,Single-ply
Ollie Walker #2,1,M,140+,,Submasters 35-39,B,,204.57,,204.57,Single-ply
Leo Contreras,1,M,140+,,Masters 45-49,B,,192.32,,192.32,Single-ply
Samantha Alves,1,F,52,,Open,SBD,19.96,24.95,52.16,97.07,Single-ply
Lisa Baldridge,1,F,90,,Open,SBD,97.07,57.15,119.75,273.97,Single-ply
Scott Layman,1,M,67.5,,Open,SBD,242.22,164.65,232.24,639.57,Single-ply
Chris Balanga,2,M,67.5,,Open,SBD,194.59,164.65,217.27,576.97,Single-ply
Gabe Covarrubias,1,M,75,,Open,SBD,214.55,124.74,249.93,589.67,Single-ply
Andrew Hoyos,1,M,75,,Open,SBD,177.35,122.47,224.98,524.81,Single-ply
Zane Gordon,1,M,82.5,,Juniors 20-23,SBD,147.42,102.06,177.35,427.28,Single-ply
Andrew Hoyos,1,M,82.5,,Masters 40-44,SBD,177.35,122.47,224.98,524.81,Single-ply
Billy Wayne,1,M,90,,Submasters 35-39,SBD,212.28,137.44,242.22,591.94,Single-ply
Michael Brown,1,M,90,,Masters 40-44,SBD,182.34,132.45,209.56,524.81,Single-ply
Jesse Branham,1,M,100,,Open,SBD,307.08,179.62,294.84,781.99,Single-ply
John Bostick,2,M,100,,Open,SBD,222.26,157.4,272.16,652.27,Single-ply
Mark Straley,1,M,100,,Masters 40-44,SBD,234.96,142.43,217.27,594.66,Single-ply
Robert Meulenberg,1,M,110,,Juniors 20-23,SBD,252.2,169.64,277.14,698.98,Single-ply
Steve Landry,1,M,110,,Open,SBD,282.13,199.58,299.82,781.99,Single-ply
Darren Robuck,2,M,110,,Open,SBD,274.88,199.58,254.92,729.83,Single-ply
Alfred Gonzales,3,M,110,,Open,SBD,269.89,159.66,297.1,727.11,Single-ply
Steve Landry,1,M,110,,Submasters 35-39,SBD,282.13,199.58,299.82,781.99,Single-ply
Jeff Hayes,1,M,110,,Masters 40-44,SBD,227.25,177.35,249.93,654.53,Single-ply
Clinton Haflich,1,M,110,,Masters 60-64,SBD,159.66,117.48,182.34,459.94,Single-ply
Josh Bryant #1,1,M,125,,Juniors 16-19,SBD,329.76,227.25,227.25,784.71,Single-ply
Andrew Austin,2,M,125,,Juniors 16-19,SBD,217.27,142.43,259.91,619.61,Single-ply
Robert Speno,1,M,125,,Open,SBD,282.13,202.3,277.14,762.04,Single-ply
Brad Trujillo,2,M,125,,Open,SBD,262.18,194.59,254.92,712.14,Single-ply
Delmer Brown,3,M,125,,Open,SBD,249.93,182.34,254.92,687.19,Single-ply
Delmer Brown,1,M,125,,Masters 45-49,SBD,249.93,182.34,254.92,687.19,Single-ply
Gary Ridgeway,2,M,125,,Masters 45-49,SBD,249.93,174.63,242.22,666.78,Single-ply
Danny Herrera,1,M,125,,Masters 45-49,SBD,99.79,182.34,99.79,381.92,Single-ply
Kevin Ezell,1,M,140,,Juniors 13-15,SBD,92.08,89.81,137.44,319.78,Single-ply
Art LaBare,1,M,140,,Open,SBD,382.38,234.96,319.78,937.12,Single-ply
Steve Brown #3,1,M,140,,Masters 45-49,SBD,249.93,209.56,249.93,709.87,Single-ply
George Brink,1,M,140+,,Open,SBD,324.77,192.32,364.69,882.24,Single-ply
Cliff Lewis,2,M,140+,,Open,SBD,287.12,177.35,299.82,764.76,Single-ply
Kalika Alves,1,M,140+,,Submasters 35-39,SBD,174.63,184.61,172.37,532.06,Single-ply
George Brink,1,M,140+,,Masters 50-54,SBD,324.77,192.32,364.69,882.24,Single-ply
