Place,Name,Sex,Event,Division,WeightClassKg,Equipment,BirthYear,State,BodyweightKg,Squat1Kg,Squat2Kg,Squat3Kg,Best3SquatKg,Bench1Kg,Bench2Kg,Bench3Kg,Best3BenchKg,Deadlift1Kg,Deadlift2Kg,Deadlift3Kg,Best3DeadliftKg,TotalKg,Age,BirthDate
1,Joel Botello,M,B,MR-O,93,Raw,1984,TX,90.3,,,,,145,150,-155,150,,,,,150,,
DQ,Katherine Conway,F,SBD,F-M1a,84+,Single-ply,1977,TX,95.1,-110,-110,-110,,60,-65,-65,60,-115,,,,,,
1,Beverly Crawford,F,SBD,F-O,72,Single-ply,1992,TX,65.7,165,-167.5,-167.5,165,90,-92.5,-92.5,90,165,,,165,420,,
1,Karen Celestin,F,SBD,FR-Jr,72,Raw,1997,TX,69.9,135,145,152.5,152.5,62.5,67.5,-70,67.5,175,182.5,-185,182.5,402.5,,
1,Candy Zavala,F,SBD,FR-O,52,Raw,1992,TX,51.7,107.5,112.5,120,120,60,65,-67.5,65,105,110,117.5,117.5,302.5,,
1,Juliegh Bookout,F,SBD,FR-O,57,Raw,1977,TX,56.6,-107.5,107.5,110,110,65,67.5,-70,67.5,142.5,150,-155,150,327.5,,
1,Belinda Alvarez,F,SBD,FR-O,84,Raw,1989,TX,74.8,-102.5,-102.5,102.5,102.5,45,50,-55,50,122.5,127.5,132.5,132.5,285,,
2,Stephanie Hulse,F,SBD,FR-O,84,Raw,1980,TX,72.5,-92.5,92.5,-97.5,92.5,-47.5,47.5,-52.5,47.5,130,135,-137.5,135,275,,
3,Cassandra Steiner,F,SBD,FR-O,84,Raw,1987,OK,76.7,70,77.5,82.5,82.5,-52.5,57.5,-62.5,57.5,107.5,115,125,125,265,,
DQ,Nathan Westbrook,M,SBD,M-O,105,Single-ply,1992,TX,104.5,327.5,340,350,350,-255,-255,-270,,-300,,,,,,
1,Randall Holliday,M,SBD,MR-Jr,83,Raw,1997,TX,82.3,210,220,227.5,227.5,135,140,-142.5,140,232.5,247.5,260,260,627.5,,
1,James Morris,M,SBD,MR-M1b,120,Raw,1969,TX,110.2,90,100,105,105,130,135,142.5,142.5,200,207.5,212.5,212.5,460,,
1,Humberto Alvarado,M,SBD,MR-O,74,Raw,1985,TX,73.2,-155,-160,160,160,132.5,140,-145,140,180,190,197.5,197.5,497.5,,
1,Jose Becerra,M,SBD,MR-O,83,Raw,1990,TX,82.1,157.5,175,187.5,187.5,117.5,127.5,-135,127.5,175,195,210,210,525,,
DQ,Hector Rodriguez,M,SBD,MR-O,83,Raw,1985,TX,82,-167.5,-167.5,,,-110,-110,-110,,-197.5,,,,,,
1,Michael Pyon,M,SBD,MR-O,93,Raw,1991,TX,87.5,175,227.5,240,240,100,125,155,155,200,272.5,-295,272.5,667.5,,
2,Joel Botello,M,SBD,MR-O,93,Raw,1984,TX,90.3,227.5,232.5,-242.5,232.5,145,150,-155,150,235,242.5,-250,242.5,625,,
DQ,Alexander Martin,M,SBD,MR-O,93,Raw,1997,TX,89.9,-127.5,-135,-140,,-95,-95,-95,,-175,,,,,,
1,Michael Davis #1,M,SBD,MR-O,105,Raw,1995,TX,104.7,290,305,312.5,312.5,195,205,-212.5,205,317.5,332.5,345,345,862.5,,
2,Micah Middleton,M,SBD,MR-O,105,Raw,1990,VA,99.4,185,192.5,200,200,137.5,-140,-140,137.5,240,250,-257.5,250,587.5,,
3,Juan Maldonado,M,SBD,MR-O,105,Raw,1990,TX,100.9,147.5,155,167.5,167.5,115,120,-122.5,120,-192.5,192.5,-200,192.5,480,,
DQ,Seth Alcozer,M,SBD,MR-O,120+,Raw,1991,TX,122,235,-240,242.5,242.5,-165,-172.5,-172.5,,-250,,,,,,
1,Stefan Schultz,M,SBD,MR-T1,66,Raw,2003,TX,62.4,142.5,155,-160,155,80,87.5,90,90,-185,185,-187.5,185,430,,
1,Caleb Pruett,M,SBD,MR-T1,74,Raw,2003,TX,68.3,110,115,125,125,67.5,72.5,77.5,77.5,125,130,140,140,342.5,,
1,Henrik Chan,M,SBD,MR-T1,93,Raw,2004,TX,84.2,-80,-80,80,80,-65,-70,70,70,102.5,105,110,110,260,,
1,Keaton Kaulfus,M,SBD,MR-T3,93,Raw,2001,TX,89.5,190,202.5,-212.5,202.5,132.5,137.5,142.5,142.5,190,200,212.5,212.5,557.5,,
